^C:\USERS\CAMERON\DOCUMENTS\FRAMEWORK\EXAMPLE\SRC\MAIN.CPP
/c /IC:\USERS\CAMERON\DOCUMENTS\FRAMEWORK\EXAMPLE\INCLUDE /IC:\USERS\CAMERON\DOCUMENTS\FRAMEWORK\FRAMEWORK/INCLUDE /IC:\USERS\CAMERON\DOCUMENTS\FRAMEWORK\DEPS/TINYXML /IC:\USERS\CAMERON\DOCUMENTS\FRAMEWORK\DEPS/GLFW/INCLUDE /I"C:\USERS\CAMERON\DOCUMENTS\FRAMEWORK\DEPS/GLEW-2.0.0/INCLUDE" /IC:\USERS\CAMERON\DOCUMENTS\FRAMEWORK\DEPS/GLM /Zi /nologo /W4 /WX- /sdl /O2 /Oi /GL /D _CRT_SECURE_NO_WARNINGS /D GLM_FORCE_SWIZZLE /D GLM_FORCE_RADIANS /D GLM_FORCE_PURE /D GLM_ENABLE_EXPERIMENTAL /D GLEW_STATIC /D _MBCS /D _MBCS /Gm- /EHsc /MD /GS /Gy /fp:precise /Zc:wchar_t /Zc:forScope /Zc:inline /Fo"C:\USERS\CAMERON\DOCUMENTS\FRAMEWORK\EXAMPLE\/OBJ\\" /Fd"C:\USERS\CAMERON\DOCUMENTS\FRAMEWORK\EXAMPLE\/OBJ\VC140.PDB" /Gd /TP /wd4201 /wd4310 /wd4099 C:\USERS\CAMERON\DOCUMENTS\FRAMEWORK\EXAMPLE\SRC\MAIN.CPP
^C:\USERS\CAMERON\DOCUMENTS\FRAMEWORK\EXAMPLE\SRC\MYAPPLICATION.CPP
/c /IC:\USERS\CAMERON\DOCUMENTS\FRAMEWORK\EXAMPLE\INCLUDE /IC:\USERS\CAMERON\DOCUMENTS\FRAMEWORK\FRAMEWORK/INCLUDE /IC:\USERS\CAMERON\DOCUMENTS\FRAMEWORK\DEPS/TINYXML /IC:\USERS\CAMERON\DOCUMENTS\FRAMEWORK\DEPS/GLFW/INCLUDE /I"C:\USERS\CAMERON\DOCUMENTS\FRAMEWORK\DEPS/GLEW-2.0.0/INCLUDE" /IC:\USERS\CAMERON\DOCUMENTS\FRAMEWORK\DEPS/GLM /Zi /nologo /W4 /WX- /sdl /O2 /Oi /GL /D _CRT_SECURE_NO_WARNINGS /D GLM_FORCE_SWIZZLE /D GLM_FORCE_RADIANS /D GLM_FORCE_PURE /D GLM_ENABLE_EXPERIMENTAL /D GLEW_STATIC /D _MBCS /D _MBCS /Gm- /EHsc /MD /GS /Gy /fp:precise /Zc:wchar_t /Zc:forScope /Zc:inline /Fo"C:\USERS\CAMERON\DOCUMENTS\FRAMEWORK\EXAMPLE\/OBJ\\" /Fd"C:\USERS\CAMERON\DOCUMENTS\FRAMEWORK\EXAMPLE\/OBJ\VC140.PDB" /Gd /TP /wd4201 /wd4310 /wd4099 C:\USERS\CAMERON\DOCUMENTS\FRAMEWORK\EXAMPLE\SRC\MYAPPLICATION.CPP
