^C:\USERS\CAMERON\DOCUMENTS\FRAMEWORK\EXAMPLE\SRC\MAIN.CPP|C:\USERS\CAMERON\DOCUMENTS\FRAMEWORK\EXAMPLE\SRC\MYAPPLICATION.CPP
C:\USERS\CAMERON\DOCUMENTS\FRAMEWORK\EXAMPLE\OBJ\VC140.PDB
C:\USERS\CAMERON\DOCUMENTS\FRAMEWORK\EXAMPLE\OBJ\MYAPPLICATION.OBJ
C:\USERS\CAMERON\DOCUMENTS\FRAMEWORK\EXAMPLE\OBJ\MAIN.OBJ
^C:\USERS\CAMERON\DOCUMENTS\FRAMEWORK\EXAMPLE\SRC\MAIN.CPP
C:\USERS\CAMERON\DOCUMENTS\FRAMEWORK\EXAMPLE\OBJ\VC140.PDB
^C:\USERS\CAMERON\DOCUMENTS\FRAMEWORK\EXAMPLE\SRC\MYAPPLICATION.CPP
C:\USERS\CAMERON\DOCUMENTS\FRAMEWORK\EXAMPLE\OBJ\VC140.PDB
