^C:\USERS\CAMERON\DOCUMENTS\CT5037-AIARENA\ANIMATION\SRC\ACTOR.CPP|C:\USERS\CAMERON\DOCUMENTS\CT5037-AIARENA\ANIMATION\SRC\ANIMATION.CPP|C:\USERS\CAMERON\DOCUMENTS\CT5037-AIARENA\ANIMATION\SRC\BLUE.CPP|C:\USERS\CAMERON\DOCUMENTS\CT5037-AIARENA\ANIMATION\SRC\GREEN.CPP|C:\USERS\CAMERON\DOCUMENTS\CT5037-AIARENA\ANIMATION\SRC\MAIN.CPP|C:\USERS\CAMERON\DOCUMENTS\CT5037-AIARENA\ANIMATION\SRC\PURPLE.CPP|C:\USERS\CAMERON\DOCUMENTS\CT5037-AIARENA\ANIMATION\SRC\RED.CPP|C:\USERS\CAMERON\DOCUMENTS\CT5037-AIARENA\ANIMATION\SRC\STAGE.CPP|C:\USERS\CAMERON\DOCUMENTS\CT5037-AIARENA\ANIMATION\SRC\YELLOW.CPP
C:\USERS\CAMERON\DOCUMENTS\CT5037-AIARENA\ANIMATION\OBJ\VC140.PDB
C:\USERS\CAMERON\DOCUMENTS\CT5037-AIARENA\ANIMATION\OBJ\VC140.IDB
C:\USERS\CAMERON\DOCUMENTS\CT5037-AIARENA\ANIMATION\OBJ\ACTOR.OBJ
C:\USERS\CAMERON\DOCUMENTS\CT5037-AIARENA\ANIMATION\OBJ\BLUE.OBJ
C:\USERS\CAMERON\DOCUMENTS\CT5037-AIARENA\ANIMATION\OBJ\GREEN.OBJ
C:\USERS\CAMERON\DOCUMENTS\CT5037-AIARENA\ANIMATION\OBJ\MAIN.OBJ
C:\USERS\CAMERON\DOCUMENTS\CT5037-AIARENA\ANIMATION\OBJ\ANIMATION.OBJ
C:\USERS\CAMERON\DOCUMENTS\CT5037-AIARENA\ANIMATION\OBJ\PURPLE.OBJ
C:\USERS\CAMERON\DOCUMENTS\CT5037-AIARENA\ANIMATION\OBJ\RED.OBJ
C:\USERS\CAMERON\DOCUMENTS\CT5037-AIARENA\ANIMATION\OBJ\STAGE.OBJ
C:\USERS\CAMERON\DOCUMENTS\CT5037-AIARENA\ANIMATION\OBJ\YELLOW.OBJ
^C:\USERS\CAMERON\DOCUMENTS\CT5037-AIARENA\ANIMATION\SRC\ACTOR.CPP
C:\USERS\CAMERON\DOCUMENTS\CT5037-AIARENA\ANIMATION\OBJ\VC140.PDB
^C:\USERS\CAMERON\DOCUMENTS\CT5037-AIARENA\ANIMATION\SRC\BLUE.CPP
C:\USERS\CAMERON\DOCUMENTS\CT5037-AIARENA\ANIMATION\OBJ\VC140.PDB
^C:\USERS\CAMERON\DOCUMENTS\CT5037-AIARENA\ANIMATION\SRC\GREEN.CPP
C:\USERS\CAMERON\DOCUMENTS\CT5037-AIARENA\ANIMATION\OBJ\VC140.PDB
^C:\USERS\CAMERON\DOCUMENTS\CT5037-AIARENA\ANIMATION\SRC\MAIN.CPP
C:\USERS\CAMERON\DOCUMENTS\CT5037-AIARENA\ANIMATION\OBJ\VC140.PDB
^C:\USERS\CAMERON\DOCUMENTS\CT5037-AIARENA\ANIMATION\SRC\ANIMATION.CPP
C:\USERS\CAMERON\DOCUMENTS\CT5037-AIARENA\ANIMATION\OBJ\VC140.PDB
C:\USERS\CAMERON\DOCUMENTS\CT5037-AIARENA\ANIMATION\OBJ\VC140.IDB
C:\USERS\CAMERON\DOCUMENTS\CT5037-AIARENA\ANIMATION\OBJ\ANIMATION.OBJ
^C:\USERS\CAMERON\DOCUMENTS\CT5037-AIARENA\ANIMATION\SRC\PURPLE.CPP
C:\USERS\CAMERON\DOCUMENTS\CT5037-AIARENA\ANIMATION\OBJ\VC140.PDB
^C:\USERS\CAMERON\DOCUMENTS\CT5037-AIARENA\ANIMATION\SRC\RED.CPP
C:\USERS\CAMERON\DOCUMENTS\CT5037-AIARENA\ANIMATION\OBJ\VC140.PDB
^C:\USERS\CAMERON\DOCUMENTS\CT5037-AIARENA\ANIMATION\SRC\STAGE.CPP
C:\USERS\CAMERON\DOCUMENTS\CT5037-AIARENA\ANIMATION\OBJ\VC140.PDB
^C:\USERS\CAMERON\DOCUMENTS\CT5037-AIARENA\ANIMATION\SRC\YELLOW.CPP
C:\USERS\CAMERON\DOCUMENTS\CT5037-AIARENA\ANIMATION\OBJ\VC140.PDB
