^C:\USERS\CAMERON\DOCUMENTS\FRAMEWORK\ANIMATION\OBJ\ACTOR.OBJ|C:\USERS\CAMERON\DOCUMENTS\FRAMEWORK\ANIMATION\OBJ\ANIMATION.OBJ|C:\USERS\CAMERON\DOCUMENTS\FRAMEWORK\ANIMATION\OBJ\BLUE.OBJ|C:\USERS\CAMERON\DOCUMENTS\FRAMEWORK\ANIMATION\OBJ\GREEN.OBJ|C:\USERS\CAMERON\DOCUMENTS\FRAMEWORK\ANIMATION\OBJ\MAIN.OBJ|C:\USERS\CAMERON\DOCUMENTS\FRAMEWORK\ANIMATION\OBJ\PURPLE.OBJ|C:\USERS\CAMERON\DOCUMENTS\FRAMEWORK\ANIMATION\OBJ\RED.OBJ|C:\USERS\CAMERON\DOCUMENTS\FRAMEWORK\ANIMATION\OBJ\STAGE.OBJ|C:\USERS\CAMERON\DOCUMENTS\FRAMEWORK\ANIMATION\OBJ\YELLOW.OBJ
/OUT:"C:\USERS\CAMERON\DOCUMENTS\FRAMEWORK\ANIMATION\/BIN\ANIMATION.EXE" /INCREMENTAL /NOLOGO /LIBPATH:C:\USERS\CAMERON\DOCUMENTS\FRAMEWORK\LIB /LIBPATH:"C:\USERS\CAMERON\DOCUMENTS\FRAMEWORK\DEPS/GLEW-2.0.0/LIB-VC2015/X64/DEBUG" /LIBPATH:"C:\USERS\CAMERON\DOCUMENTS\FRAMEWORK\DEPS/GLFW/LIB-VC2015/X64/DEBUG" FRAMEWORK.LIB FBX_LOADER.LIB KERNEL32.LIB USER32.LIB GDI32.LIB WINSPOOL.LIB COMDLG32.LIB ADVAPI32.LIB SHELL32.LIB OLE32.LIB OLEAUT32.LIB UUID.LIB ODBC32.LIB ODBCCP32.LIB KERNEL32.LIB USER32.LIB GDI32.LIB WINSPOOL.LIB COMDLG32.LIB ADVAPI32.LIB SHELL32.LIB OLE32.LIB OLEAUT32.LIB UUID.LIB ODBC32.LIB ODBCCP32.LIB /MANIFEST /MANIFESTUAC:"level='asInvoker' uiAccess='false'" /manifest:embed /DEBUG:FASTLINK /PDB:"C:\USERS\CAMERON\DOCUMENTS\FRAMEWORK\ANIMATION\/BIN\ANIMATION.PDB" /TLBID:1 /DYNAMICBASE /NXCOMPAT /IMPLIB:"C:\USERS\CAMERON\DOCUMENTS\FRAMEWORK\ANIMATION\/BIN\ANIMATION.LIB" /MACHINE:X64 C:\USERS\CAMERON\DOCUMENTS\FRAMEWORK\ANIMATION\/OBJ\ACTOR.OBJC:\USERS\CAMERON\DOCUMENTS\FRAMEWORK\ANIMATION\/OBJ\BLUE.OBJC:\USERS\CAMERON\DOCUMENTS\FRAMEWORK\ANIMATION\/OBJ\GREEN.OBJC:\USERS\CAMERON\DOCUMENTS\FRAMEWORK\ANIMATION\/OBJ\MAIN.OBJC:\USERS\CAMERON\DOCUMENTS\FRAMEWORK\ANIMATION\/OBJ\ANIMATION.OBJC:\USERS\CAMERON\DOCUMENTS\FRAMEWORK\ANIMATION\/OBJ\PURPLE.OBJC:\USERS\CAMERON\DOCUMENTS\FRAMEWORK\ANIMATION\/OBJ\RED.OBJC:\USERS\CAMERON\DOCUMENTS\FRAMEWORK\ANIMATION\/OBJ\STAGE.OBJC:\USERS\CAMERON\DOCUMENTS\FRAMEWORK\ANIMATION\/OBJ\YELLOW.OBJ
^C:\USERS\CAMERON\DOCUMENTS\CT5037-AIARENA\ANIMATION\OBJ\ACTOR.OBJ|C:\USERS\CAMERON\DOCUMENTS\CT5037-AIARENA\ANIMATION\OBJ\ANIMATION.OBJ|C:\USERS\CAMERON\DOCUMENTS\CT5037-AIARENA\ANIMATION\OBJ\BLUE.OBJ|C:\USERS\CAMERON\DOCUMENTS\CT5037-AIARENA\ANIMATION\OBJ\GREEN.OBJ|C:\USERS\CAMERON\DOCUMENTS\CT5037-AIARENA\ANIMATION\OBJ\MAIN.OBJ|C:\USERS\CAMERON\DOCUMENTS\CT5037-AIARENA\ANIMATION\OBJ\PURPLE.OBJ|C:\USERS\CAMERON\DOCUMENTS\CT5037-AIARENA\ANIMATION\OBJ\RED.OBJ|C:\USERS\CAMERON\DOCUMENTS\CT5037-AIARENA\ANIMATION\OBJ\STAGE.OBJ|C:\USERS\CAMERON\DOCUMENTS\CT5037-AIARENA\ANIMATION\OBJ\YELLOW.OBJ
/OUT:"C:\USERS\CAMERON\DOCUMENTS\CT5037-AIARENA\ANIMATION\/BIN\ANIMATION.EXE" /INCREMENTAL /NOLOGO /LIBPATH:"C:\USERS\CAMERON\DOCUMENTS\CT5037-AIARENA\LIB" /LIBPATH:"C:\USERS\CAMERON\DOCUMENTS\CT5037-AIARENA\DEPS/GLEW-2.0.0/LIB-VC2015/X64/DEBUG" /LIBPATH:"C:\USERS\CAMERON\DOCUMENTS\CT5037-AIARENA\DEPS/GLFW/LIB-VC2015/X64/DEBUG" FRAMEWORK.LIB FBX_LOADER.LIB KERNEL32.LIB USER32.LIB GDI32.LIB WINSPOOL.LIB COMDLG32.LIB ADVAPI32.LIB SHELL32.LIB OLE32.LIB OLEAUT32.LIB UUID.LIB ODBC32.LIB ODBCCP32.LIB KERNEL32.LIB USER32.LIB GDI32.LIB WINSPOOL.LIB COMDLG32.LIB ADVAPI32.LIB SHELL32.LIB OLE32.LIB OLEAUT32.LIB UUID.LIB ODBC32.LIB ODBCCP32.LIB /MANIFEST /MANIFESTUAC:"level='asInvoker' uiAccess='false'" /manifest:embed /DEBUG:FASTLINK /PDB:"C:\USERS\CAMERON\DOCUMENTS\CT5037-AIARENA\ANIMATION\/BIN\ANIMATION.PDB" /TLBID:1 /DYNAMICBASE /NXCOMPAT /IMPLIB:"C:\USERS\CAMERON\DOCUMENTS\CT5037-AIARENA\ANIMATION\/BIN\ANIMATION.LIB" /MACHINE:X64 "C:\USERS\CAMERON\DOCUMENTS\CT5037-AIARENA\ANIMATION\/OBJ\ACTOR.OBJ""C:\USERS\CAMERON\DOCUMENTS\CT5037-AIARENA\ANIMATION\/OBJ\BLUE.OBJ""C:\USERS\CAMERON\DOCUMENTS\CT5037-AIARENA\ANIMATION\/OBJ\GREEN.OBJ""C:\USERS\CAMERON\DOCUMENTS\CT5037-AIARENA\ANIMATION\/OBJ\MAIN.OBJ""C:\USERS\CAMERON\DOCUMENTS\CT5037-AIARENA\ANIMATION\/OBJ\ANIMATION.OBJ""C:\USERS\CAMERON\DOCUMENTS\CT5037-AIARENA\ANIMATION\/OBJ\PURPLE.OBJ""C:\USERS\CAMERON\DOCUMENTS\CT5037-AIARENA\ANIMATION\/OBJ\RED.OBJ""C:\USERS\CAMERON\DOCUMENTS\CT5037-AIARENA\ANIMATION\/OBJ\STAGE.OBJ""C:\USERS\CAMERON\DOCUMENTS\CT5037-AIARENA\ANIMATION\/OBJ\YELLOW.OBJ"
